…
    ## New names:
    ## * `` -> ...6

``` r
weights_tidy
```

    ## # A tibble: 205 x 5
    ##    date       raisin simone gagne std    
    ##    <date>     <chr>  <chr>  <chr> <chr>  
    ##  1 2018-08-12 19 12  10 14  10 10 <NA>   
    ##  2 2018-08-19 20 03  11 02  10 12 20 15.8
    ##  3 2018-08-22 20 04  11 04  10 13 20 15.6
    ##  4 2018-08-24 19 13  11 04  11 01 20 15.6
    ##  5 2018-08-27 19 06  10 08  10 06 20 15.6
    ##  6 2018-08-28 <NA>   <NA>   <NA>  <NA>   
    ##  7 2018-08-29 19 06  11 00  11 01 20 15.6
    ##  8 2018-08-30 <NA>   <NA>   <NA>  <NA>   
    ##  9 2018-08-31 19 09  11 00  10 12 20 15.6
    ## 10 2018-09-01 <NA>   <NA>   <NA>  <NA>   
    ## # ... with 195 more rows
…
weights_tidy
```

    ## # A tibble: 515 x 6
    ##    date       std_lbs std_oz pet_name weight_lbs weight_oz
    ##    <date>       <dbl>  <dbl> <chr>         <dbl>     <dbl>
    ##  1 2018-08-12      NA   NA   raisin           19        12
    ##  2 2018-08-12      NA   NA   simone           10        14
    ##  3 2018-08-12      NA   NA   gagne            10        10
    ##  4 2018-08-19      20   15.8 raisin           20         3
    ##  5 2018-08-19      20   15.8 simone           11         2
    ##  6 2018-08-19      20   15.8 gagne            10        12
    ##  7 2018-08-22      20   15.6 raisin           20         4
    ##  8 2018-08-22      20   15.6 simone           11         4
    ##  9 2018-08-22      20   15.6 gagne            10        13
    ## 10 2018-08-24      20   15.6 raisin           19        13
    ## # ... with 505 more rows
``` r
weights_tidy =
  weights_tidy %>% 
  mutate(
    weight_oz = weight_oz / 16,
    std_oz = std_oz / 16,
    total_weight_lbs = weight_lbs + weight_oz,
    total_std_lbs = std_lbs + std_oz) %>% 
  select(date, pet_name, total_weight_lbs, total_std_lbs) %>% 
  drop_na(total_weight_lbs)

weights_tidy
```

    ## # A tibble: 513 x 4
    ##    date       pet_name total_weight_lbs total_std_lbs
    ##    <date>     <chr>               <dbl>         <dbl>
    ##  1 2018-08-12 raisin               19.8          NA  
    ##  2 2018-08-12 simone               10.9          NA  
    ##  3 2018-08-12 gagne                10.6          NA  
    ##  4 2018-08-19 raisin               20.2          21.0
    ##  5 2018-08-19 simone               11.1          21.0
    ##  6 2018-08-19 gagne                10.8          21.0
    ##  7 2018-08-22 raisin               20.2          21.0
    ##  8 2018-08-22 simone               11.2          21.0
    ##  9 2018-08-22 gagne                10.8          21.0
    ## 10 2018-08-24 raisin               19.8          21.0
    ## # ... with 503 more rows
…
     Our weights\_tidy data set is ordered by date and includes weight
data in both pounds and ounces (and their standard deviations) for each
dog by pet\_name.Number of unique dates were isolated by creating a new
data frame (n\_dates) with duplicate dates eliminated then counting the
number of rows.

``` r
n_dates = 
  weights_tidy %>% 
  distinct(date)

n_dates
```

    ## # A tibble: 202 x 1
    ##    date      
    ##    <date>    
    ##  1 2018-08-12
    ##  2 2018-08-19
    ##  3 2018-08-22
    ##  4 2018-08-24
    ##  5 2018-08-27
    ##  6 2018-08-29
    ##  7 2018-08-31
    ##  8 2018-09-02
    ##  9 2018-09-03
    ## 10 2018-09-04
    ## # ... with 192 more rows
…
